{
    "type": "FeatureCollection",
    "features": [
        {
            "type": "Feature",
            "geometry": {
                "type": "Polygon",
                "coordinates": [
                    [
                        [
                            -55.549422134,
                            -30.884722619
                        ],
                        [
                            -55.549365137,
                            -30.88467393
                        ],
                        [
                            -55.549325356,
                            -30.884646046
                        ],
                        [
                            -55.549280031,
                            -30.884625391
                        ],
                        [
                            -55.549230906,
                            -30.88461276
                        ],
                        [
                            -55.549179867,
                            -30.884608637
                        ],
                        [
                            -55.549128876,
                            -30.884613181
                        ],
                        [
                            -55.549079893,
                            -30.884626217
                        ],
                        [
                            -55.549034799,
                            -30.884647245
                        ],
                        [
                            -55.548995329,
                            -30.884675455
                        ],
                        [
                            -55.548962998,
                            -30.884709765
                        ],
                        [
                            -55.54893905,
                            -30.884748856
                        ],
                        [
                            -55.548924404,
                            -30.884791225
                        ],
                        [
                            -55.548919623,
                            -30.884835244
                        ],
                        [
                            -55.548924892,
                            -30.884879222
                        ],
                        [
                            -55.548940007,
                            -30.884921468
                        ],
                        [
                            -55.548964388,
                            -30.884960359
                        ],
                        [
                            -55.548997097,
                            -30.884994401
                        ],
                        [
                            -55.549060183,
                            -30.885048292
                        ],
                        [
                            -55.549072743,
                            -30.88505834
                        ],
                        [
                            -55.549515308,
                            -30.88538981
                        ],
                        [
                            -55.549557121,
                            -30.885415387
                        ],
                        [
                            -55.549603917,
                            -30.885433438
                        ],
                        [
                            -55.549653896,
                            -30.885443268
                        ],
                        [
                            -55.549705139,
                            -30.8854445
                        ],
                        [
                            -55.549755676,
                            -30.885437086
                        ],
                        [
                            -55.549803565,
                            -30.885421311
                        ],
                        [
                            -55.549846965,
                            -30.885397782
                        ],
                        [
                            -55.549884209,
                            -30.885367403
                        ],
                        [
                            -55.549913865,
                            -30.88533134
                        ],
                        [
                            -55.549934795,
                            -30.885290981
                        ],
                        [
                            -55.549946192,
                            -30.885247876
                        ],
                        [
                            -55.54994762,
                            -30.885203681
                        ],
                        [
                            -55.549939024,
                            -30.885160095
                        ],
                        [
                            -55.549920734,
                            -30.885118793
                        ],
                        [
                            -55.549893452,
                            -30.885081363
                        ],
                        [
                            -55.549858228,
                            -30.885049241
                        ],
                        [
                            -55.549422134,
                            -30.884722619
                        ]
                    ]
                ]
            }
        },
        {
            "type": "Feature",
            "properties": {
                "uuid": "53dae9a0-9999-11e5-964b-0050569b7e95",
                "linien": "1;5"
            },
            "geometry": {
                "type": "Polygon",
                "coordinates": [
                    [
                        [
                            -55.537637246,
                            -30.894053544
                        ],
                        [
                            -55.537673613,
                            -30.894022383
                        ],
                        [
                            -55.537702232,
                            -30.893985701
                        ],
                        [
                            -55.537722003,
                            -30.893944909
                        ],
                        [
                            -55.537732166,
                            -30.893901575
                        ],
                        [
                            -55.537732331,
                            -30.893857364
                        ],
                        [
                            -55.53772249,
                            -30.893813974
                        ],
                        [
                            -55.537703023,
                            -30.893773074
                        ],
                        [
                            -55.537674678,
                            -30.893736235
                        ],
                        [
                            -55.537638543,
                            -30.893704872
                        ],
                        [
                            -55.537596008,
                            -30.893680192
                        ],
                        [
                            -55.537548707,
                            -30.893663142
                        ],
                        [
                            -55.537498457,
                            -30.893654377
                        ],
                        [
                            -55.53744719,
                            -30.893654235
                        ],
                        [
                            -55.537396877,
                            -30.893662721
                        ],
                        [
                            -55.53734945,
                            -30.893679509
                        ],
                        [
                            -55.537306731,
                            -30.893703954
                        ],
                        [
                            -55.53678654,
                            -30.894069704
                        ],
                        [
                            -55.536750173,
                            -30.894100866
                        ],
                        [
                            -55.536721553,
                            -30.894137547
                        ],
                        [
                            -55.536701782,
                            -30.894178339
                        ],
                        [
                            -55.536691618,
                            -30.894221673
                        ],
                        [
                            -55.536691453,
                            -30.894265884
                        ],
                        [
                            -55.536701293,
                            -30.894309274
                        ],
                        [
                            -55.53672076,
                            -30.894350174
                        ],
                        [
                            -55.536749105,
                            -30.894387014
                        ],
                        [
                            -55.53678524,
                            -30.894418377
                        ],
                        [
                            -55.536827775,
                            -30.894443057
                        ],
                        [
                            -55.536875077,
                            -30.894460108
                        ],
                        [
                            -55.536925326,
                            -30.894468872
                        ],
                        [
                            -55.536976593,
                            -30.894469014
                        ],
                        [
                            -55.537026908,
                            -30.894460529
                        ],
                        [
                            -55.537074335,
                            -30.894443741
                        ],
                        [
                            -55.537117054,
                            -30.894419297
                        ],
                        [
                            -55.537637246,
                            -30.894053544
                        ]
                    ]
                ]
            }
        }
    ]
}